R#2: introduction to Tidyverse
…
How many rows are in new_mpg? How many columns?

new_mpg

## # A tibble: 40,440 x 12
##       id make  model   year class trans drive   cyl displ fuel    hwy   cty
##    <dbl> <chr> <chr>  <dbl> <chr> <chr> <chr> <dbl> <dbl> <chr> <dbl> <dbl>
##  1 13309 Acura 2.2CL  1997 Subc Auto Fron     4   2.2 Regu    26    20
##  2 13310 Acura 2.2CL  1997 Subc Manu Fron     4   2.2 Regu    28    22
##  3 13311 Acura 2.2CL  1997 Subc Auto Fron     6   3   Regu    26    18
##  4 14038 Acura 2.3CL  1998 Subc Auto Fron     4   2.3 Regu    27    19
##  5 14039 Acura 2.3CL  1998 Subc Manu Fron     4   2.3 Regu    29    21
##  6 14040 Acura 2.3CL  1998 Subc Auto Fron     6   3   Regu    26    17
##  7 14834 Acura 2.3CL  1999 Subc Auto Fron     4   2.3 Regu    27    20
##  8 14835 Acura 2.3CL  1999 Subc Manu Fron     4   2.3 Regu    29    21
##  9 14836 Acura 2.3CL  1999 Subc Auto Fron     6   3   Regu    26    17
## 10 11789 Acura 2.5TL   1995 Comp Auto Fron     5   2.5 Prem    23    18
## #  with 40,430 more rows
…
